United Nations Voting Correlations
…
United Nations Voting Correlations

David Robinson

2020-04-11

Here we’ll examine an example application of the widyr package, particularly the pairwise_cor and pairwise_dist functions. We’ll use the data on United Nations General Assembly voting from the unvotes package:

library(dplyr)
library(unvotes)

un_votes

## # A tibble: 738,764 x 4
##     rcid country                  country_code vote 
##    <int> <chr>                    <chr>        <fct>
##  1     3 United States of America US           yes  
##  2     3 Canada                   CA           no   
##  3     3 Cuba                     CU           yes  
##  4     3 Haiti                    HT           yes  
##  5     3 Dominican Republic       DO           yes  
##  6     3 Mexico                   MX           yes  
##  7     3 Guatemala                GT           yes  
##  8     3 Honduras                 HN           yes  
##  9     3 El Salvador              SV           yes  
## 10     3 Nicaragua                NI           yes  
## # … with 738,754 more rows
…
levels(un_votes$vote)

## [1] "yes"     "abstain" "no"

We may then be interested in obtaining a measure of country-to-country agreement for each vote, using the pairwise_cor function.

library(widyr)

cors <- un_votes %>%
  mutate(vote = as.numeric(vote)) %>%
  pairwise_cor(country, rcid, vote, use = "pairwise.complete.obs", sort = TRUE)

cors

## # A tibble: 39,800 x 3
##    item1          item2          correlation
##    <chr>          <chr>                <dbl>
##  1 Slovakia       Czech Republic       0.989
##  2 Czech Republic Slovakia             0.989
##  3 Lithuania      Estonia              0.971
##  4 Estonia        Lithuania            0.971
##  5 Lithuania      Latvia               0.970
##  6 Latvia         Lithuania            0.970
##  7 Germany        Liechtenstein        0.968
##  8 Liechtenstein  Germany              0.968
##  9 Slovakia       Slovenia             0.966
## 10 Slovenia       Slovakia             0.966
## # … with 39,790 more rows

We could, for example, find the countries that the US is most and least in agreement with:

US_cors <- cors %>%
  filter(item1 == "United States of America")

# Most in agreement
US_cors

## # A tibble: 199 x 3
##    item1                    item2                                                correlation
##    <chr>                    <chr>                                                      <dbl>
##  1 United States of America United Kingdom of Great Britain and Northern Ireland       0.576
##  2 United States of America Canada                                                     0.559
##  3 United States of America Israel                                                     0.540
##  4 United States of America Netherlands                                                0.515
##  5 United States of America Luxembourg                                                 0.505
##  6 United States of America Australia                                                  0.502
##  7 United States of America Belgium                                                    0.496
##  8 United States of America Italy                                                      0.467
##  9 United States of America New Zealand                                                0.458
## 10 United States of America Japan                                                      0.458
## # … with 189 more rows

# Least in agreement
US_cors %>%
  arrange(correlation)

## # A tibble: 199 x 3
##    item1                    item2                correlation
##    <chr>                    <chr>                      <dbl>
##  1 United States of America Belarus                   -0.358
##  2 United States of America Czechoslovakia            -0.330
##  3 United States of America Cuba                      -0.306
##  4 United States of America Russian Federation        -0.301
##  5 United States of America Egypt                     -0.247
##  6 United States of America India                     -0.243
##  7 United States of America Syrian Arab Republic      -0.238
##  8 United States of America Afghanistan               -0.229
##  9 United States of America Ukraine                   -0.225
## 10 United States of America Yemen Arab Republic       -0.224
## # … with 189 more rows
…
